<?xml version="1.0" encoding="utf-8"?>
<!-- Generator: Adobe Illustrator 18.1.1, SVG Export Plug-In . SVG Version: 6.00 Build 0)  -->
<svg version="1.1" id="Layer_1" xmlns="http://www.w3.org/2000/svg" xmlns:xlink="http://www.w3.org/1999/xlink" x="0px" y="0px"
	 viewBox="0 0 60 60" enable-background="new 0 0 60 60" xml:space="preserve">
<g>
	<circle fill="#34B196" cx="30" cy="13.625" r="2.1"/>
	<circle fill="#34B196" cx="29.999" cy="39.659" r="4.622"/>
	<path fill="#34B196" d="M29.997,0C13.426,0,0,13.437,0,30.005v29.994h29.997C46.564,59.999,60,46.579,60,30.005
		C60,13.437,46.564,0,29.997,0z M30.001,6.91c3.709,0,6.713,3.005,6.713,6.716c0,3.705-3.004,6.713-6.713,6.713
		c-3.709,0-6.715-3.008-6.715-6.713C23.285,9.915,26.292,6.91,30.001,6.91z M30.001,53.089c-7.418,0-13.43-6.013-13.43-13.428
		c0-7.418,6.012-13.431,13.43-13.431c7.416,0,13.428,6.013,13.428,13.431C43.429,47.076,37.417,53.089,30.001,53.089z"/>
</g>
</svg>
